{
    "response": {
        "status": "ok",
        "userTier": "developer",
        "total": 2259588,
        "startIndex": 1,
        "pageSize": 50,
        "currentPage": 1,
        "pages": 45192,
        "orderBy": "newest",
        "results": [
            {
                "id": "world/live/2021/apr/04/coronavirus-live-news-covid-vaccine-passports-trial-england-boris-johnson",
                "type": "liveblog",
                "sectionId": "world",
                "sectionName": "World news",
                "webPublicationDate": "2021-04-04T10:19:31Z",
                "webTitle": "Coronavirus live: Covid vaccine passports to be trialled in England",
                "webUrl": "https://www.theguardian.com/world/live/2021/apr/04/coronavirus-live-news-covid-vaccine-passports-trial-england-boris-johnson",
                "apiUrl": "https://content.guardianapis.com/world/live/2021/apr/04/coronavirus-live-news-covid-vaccine-passports-trial-england-boris-johnson",
                "isHosted": false,
                "pillarId": "pillar/news",
                "pillarName": "News",
                "slug": "test"
            },
            {
                "id": "football/2021/apr/04/liverpool-jurgen-klopp-arsenal-premier-league-real-madrid-champions-league",
                "type": "article",
                "sectionId": "football",
                "sectionName": "Football",
                "webPublicationDate": "2021-04-04T10:04:19Z",
                "webTitle": "Liverpool crisis is not over but win at Arsenal points to happier times ahead",
                "webUrl": "https://www.theguardian.com/football/2021/apr/04/liverpool-jurgen-klopp-arsenal-premier-league-real-madrid-champions-league",
                "apiUrl": "https://content.guardianapis.com/football/2021/apr/04/liverpool-jurgen-klopp-arsenal-premier-league-real-madrid-champions-league",
                "isHosted": false,
                "pillarId": "pillar/sport",
                "pillarName": "Sport",
                "slug": "test"
            },
            {
                "id": "books/2021/apr/04/henry-chips-channon-the-diaries-1918-38-review-priceless-interwar-gossip",
                "type": "article",
                "sectionId": "books",
                "sectionName": "Books",
                "webPublicationDate": "2021-04-04T10:00:05Z",
                "webTitle": "Henry 'Chips' Channon: The Diaries 1918-38 review – priceless interwar gossip",
                "webUrl": "https://www.theguardian.com/books/2021/apr/04/henry-chips-channon-the-diaries-1918-38-review-priceless-interwar-gossip",
                "apiUrl": "https://content.guardianapis.com/books/2021/apr/04/henry-chips-channon-the-diaries-1918-38-review-priceless-interwar-gossip",
                "isHosted": false,
                "pillarId": "pillar/arts",
                "pillarName": "Arts",
                "slug": "test"
            },
            {
                "id": "society/2021/apr/04/the-elite-controllers-who-can-naturally-suppress-hiv",
                "type": "article",
                "sectionId": "society",
                "sectionName": "Society",
                "webPublicationDate": "2021-04-04T10:00:05Z",
                "webTitle": "The 'elite controllers' who can naturally suppress HIV",
                "webUrl": "https://www.theguardian.com/society/2021/apr/04/the-elite-controllers-who-can-naturally-suppress-hiv",
                "apiUrl": "https://content.guardianapis.com/society/2021/apr/04/the-elite-controllers-who-can-naturally-suppress-hiv",
                "isHosted": false,
                "pillarId": "pillar/news",
                "pillarName": "News",
                "slug": "test"
            },
            {
                "id": "science/2021/apr/04/lack-covid-help-puts-medical-research-risk-uk-charities-warn",
                "type": "article",
                "sectionId": "science",
                "sectionName": "Science",
                "webPublicationDate": "2021-04-04T10:00:04Z",
                "webTitle": "Lack of Covid help puts medical research at risk, UK charities warn",
                "webUrl": "https://www.theguardian.com/science/2021/apr/04/lack-covid-help-puts-meical-research-risk-uk-charities-warn",
                "apiUrl": "https://content.guardianapis.com/science/2021/apr/04/lack-covid-help-puts-medical-research-risk-uk-charities-warn",
                "isHosted": false,
                "pillarId": "pillar/news",
                "pillarName": "News",
                "slug": "test"
            },
            {
                "id": "film/2021/apr/04/undine-review-christian-petzold",
                "type": "article",
                "sectionId": "film",
                "sectionName": "Film",
                "webPublicationDate": "2021-04-04T10:00:04Z",
                "webTitle": "Undine review – romance with just enough magic and mystery",
                "webUrl": "https://www.theguardian.com/film/2021/apr/04/undine-review-christian-petzold",
                "apiUrl": "https://content.guardianapis.com/film/2021/apr/04/undine-review-christian-petzold",
                "isHosted": false,
                "pillarId": "pillar/arts",
                "pillarName": "Arts",
                "slug": "test"
            },
            {
                "id": "food/2021/apr/04/tongs-at-the-ready-for-a-spicier-barbecue-season-this-summer",
                "type": "article",
                "sectionId": "food",
                "sectionName": "Food",
                "webPublicationDate": "2021-04-04T10:00:04Z",
                "webTitle": "Tongs at the ready for a spicier barbecue season this summer",
                "webUrl": "https://www.theguardian.com/food/2021/apr/04/tongs-at-the-ready-for-a-spicier-barbecue-season-this-summer",
                "apiUrl": "https://content.guardianapis.com/food/2021/apr/04/tongs-at-the-ready-for-a-spicier-barbecue-season-this-summer",
                "isHosted": false,
                "pillarId": "pillar/lifestyle",
                "pillarName": "Lifestyle",
                "slug": "test"
            },
            {
                "id": "world/2021/apr/04/wealthy-mp-with-slave-trade-links-failed-to-publish-accounts-for-four-of-his-firms",
                "type": "article",
                "sectionId": "world",
                "sectionName": "World news",
                "webPublicationDate": "2021-04-04T09:45:04Z",
                "webTitle": "Wealthy MP with slave trade links failed to publish accounts for four of his firms",
                "webUrl": "https://www.theguardian.com/world/2021/apr/04/wealthy-mp-with-slave-trade-links-failed-to-publish-accounts-for-four-of-his-firms",
                "apiUrl": "https://content.guardianapis.com/world/2021/apr/04/wealthy-mp-with-slave-trade-links-failed-to-publish-accounts-for-four-of-his-firms",
                "isHosted": false,
                "pillarId": "pillar/news",
                "pillarName": "News",
                "slug": "test"
            },
            {
                "id": "world/2021/apr/04/wall-of-hearts-grows-as-a-memorial-to-loved-ones-taken-by-coronavirus",
                "type": "article",
                "sectionId": "world",
                "sectionName": "World news",
                "webPublicationDate": "2021-04-04T09:45:04Z",
                "webTitle": "Wall of hearts grows as a memorial to loved ones taken by coronavirus",
                "webUrl": "https://www.theguardian.com/world/2021/apr/04/wall-of-hearts-grows-as-a-memorial-to-loved-ones-taken-by-coronavirus",
                "apiUrl": "https://content.guardianapis.com/world/2021/apr/04/wall-of-hearts-grows-as-a-memorial-to-loved-ones-taken-by-coronavirus",
                "isHosted": false,
                "pillarId": "pillar/news",
                "pillarName": "News",
                "slug": "test"
            },
            {
                "id": "stage/2020/mar/17/hottest-front-room-seats-the-best-theatre-and-dance-to-watch-online",
                "type": "article",
                "sectionId": "stage",
                "sectionName": "Stage",
                "webPublicationDate": "2021-04-04T09:34:40Z",
                "webTitle": "Hottest front-room seats: the best theatre and dance to watch online",
                "webUrl": "https://www.theguardian.com/stage/2020/mar/17/hottest-front-room-seats-the-best-theatre-and-dance-to-watch-online",
                "apiUrl": "https://content.guardianapis.com/stage/2020/mar/17/hottest-front-room-seats-the-best-theatre-and-dance-to-watch-online",
                "isHosted": false,
                "pillarId": "pillar/arts",
                "pillarName": "Arts",
                "slug": "test"
            },
            {
                "id": "uk-news/2021/apr/04/home-office-new-deportation-law-may-discriminate-against-ethnic-minorities",
                "type": "article",
                "sectionId": "uk-news",
                "sectionName": "UK news",
                "webPublicationDate": "2021-04-04T09:15:03Z",
                "webTitle": "Home Office: new deportation law may discriminate against ethnic minorities",
                "webUrl": "https://www.theguardian.com/uk-news/2021/apr/04/home-office-new-deportation-law-may-discriminate-against-ethnic-minorities",
                "apiUrl": "https://content.guardianapis.com/uk-news/2021/apr/04/home-office-new-deportation-law-may-discriminate-against-ethnic-minorities",
                "isHosted": false,
                "pillarId": "pillar/news",
                "pillarName": "News",
                "slug": "test"
            },
            {
                "id": "world/2021/apr/04/lockdown-made-me-do-it-how-we-lost-our-will-power-in-the-pandemic",
                "type": "article",
                "sectionId": "world",
                "sectionName": "World news",
                "webPublicationDate": "2021-04-04T09:00:04Z",
                "webTitle": "Lockdown made me do it: how we lost our will power",
                "webUrl": "https://www.theguardian.com/world/2021/apr/04/lockdown-made-me-do-it-how-we-lost-our-will-power-in-the-pandemic",
                "apiUrl": "https://content.guardianapis.com/world/2021/apr/04/lockdown-made-me-do-it-how-we-lost-our-will-power-in-the-pandemic",
                "isHosted": false,
                "pillarId": "pillar/news",
                "pillarName": "News",
                "slug": "test"
            },
            {
                "id": "world/2021/apr/04/far-right-puts-brakes-on-a-new-law-that-aims-to-stamp-out-homophobia-in-italy",
                "type": "article",
                "sectionId": "world",
                "sectionName": "World news",
                "webPublicationDate": "2021-04-04T09:00:03Z",
                "webTitle": "Far right puts brakes on a new law that aims to stamp out homophobia in Italy",
                "webUrl": "https://www.theguardian.com/world/2021/apr/04/far-right-puts-brakes-on-a-new-law-that-aims-to-stamp-out-homophobia-in-italy",
                "apiUrl": "https://content.guardianapis.com/world/2021/apr/04/far-right-puts-brakes-on-a-new-law-that-aims-to-stamp-out-homophobia-in-italy",
                "isHosted": false,
                "pillarId": "pillar/news",
                "pillarName": "News",
                "slug": "test"
            },
            {
                "id": "us-news/2021/apr/04/nina-turner-interview-democrats-progressives-joe-biden",
                "type": "article",
                "sectionId": "us-news",
                "sectionName": "US news",
                "webPublicationDate": "2021-04-04T09:00:03Z",
                "webTitle": "'A good start but miles to go': progressive Nina Turner on Biden and Democrats' future",
                "webUrl": "https://www.theguardian.com/us-news/2021/apr/04/nina-turner-interview-democrats-progressives-joe-biden",
                "apiUrl": "https://content.guardianapis.com/us-news/2021/apr/04/nina-turner-interview-democrats-progressives-joe-biden",
                "isHosted": false,
                "pillarId": "pillar/news",
                "pillarName": "News",
                "slug": "test"
            },
            {
                "id": "commentisfree/2021/apr/04/robert-jenrick-government-patriotism-union-jack-flags",
                "type": "article",
                "sectionId": "commentisfree",
                "sectionName": "Opinion",
                "webPublicationDate": "2021-04-04T09:00:03Z",
                "webTitle": "Actually, we were laughing at Robert Jenrick, not his tiny flag | David Mitchell",
                "webUrl": "https://www.theguardian.com/commentisfree/2021/apr/04/robert-jenrick-government-patriotism-union-jack-flags",
                "apiUrl": "https://content.guardianapis.com/commentisfree/2021/apr/04/robert-jenrick-government-patriotism-union-jack-flags",
                "isHosted": false,
                "pillarId": "pillar/opinion",
                "pillarName": "Opinion",
                "slug": "test"
            },
            {
                "id": "fashion/2021/apr/04/digital-fashion-this-outfit-will-set-you-back-780-and-its-just-an-illusion",
                "type": "article",
                "sectionId": "fashion",
                "sectionName": "Fashion",
                "webPublicationDate": "2021-04-04T08:45:02Z",
                "webTitle": "Digital fashion: This outfit will set you back £780 … and it’s just an illusion ",
                "webUrl": "https://www.theguardian.com/fashion/2021/apr/04/digital-fashion-this-outfit-will-set-you-back-780-and-its-just-an-illusion",
                "apiUrl": "https://content.guardianapis.com/fashion/2021/apr/04/digital-fashion-this-outfit-will-set-you-back-780-and-its-just-an-illusion",
                "isHosted": false,
                "pillarId": "pillar/lifestyle",
                "pillarName": "Lifestyle",
                "slug": "test"
            },
            {
                "id": "law/2021/apr/04/victims-of-suffer-as-backlog-of-court-cases-hits-crisis-level",
                "type": "article",
                "sectionId": "law",
                "sectionName": "Law",
                "webPublicationDate": "2021-04-04T08:45:02Z",
                "webTitle": "Victims of crime suffer as backlog of court cases hits ‘crisis level’",
                "webUrl": "https://www.theguardian.com/law/2021/apr/04/victims-of-suffer-as-backlog-of-court-cases-hits-crisis-level",
                "apiUrl": "https://content.guardianapis.com/law/2021/apr/04/victims-of-suffer-as-backlog-of-court-cases-hits-crisis-level",
                "isHosted": false,
                "pillarId": "pillar/news",
                "pillarName": "News",
                "slug": "test"
            },
            {
                "id": "uk-news/2021/apr/04/if-your-dog-goes-for-my-sheep-then-i-will-shoot-uk-farmers-warn-walkers",
                "type": "article",
                "sectionId": "uk-news",
                "sectionName": "UK news",
                "webPublicationDate": "2021-04-04T08:30:03Z",
                "webTitle": "If your dog goes for my sheep, then I will shoot, UK farmers warn walkers",
                "webUrl": "https://www.theguardian.com/uk-news/2021/apr/04/if-your-dog-goes-for-my-sheep-then-i-will-shoot-uk-farmers-warn-walkers",
                "apiUrl": "https://content.guardianapis.com/uk-news/2021/apr/04/if-your-dog-goes-for-my-sheep-then-i-will-shoot-uk-farmers-warn-walkers",
                "isHosted": false,
                "pillarId": "pillar/news",
                "pillarName": "News",
                "slug": "test"
            },
            {
                "id": "tv-and-radio/2021/apr/04/the-syndicate-review-pandemic-2020-collective-unravelling-a-scandal-pls-like-unforgotten",
                "type": "article",
                "sectionId": "tv-and-radio",
                "sectionName": "Television & radio",
                "webPublicationDate": "2021-04-04T08:30:03Z",
                "webTitle": "The week in TV: The Syndicate; Pandemic 2020; Storyville: Collective; Pls Like; Unforgotten",
                "webUrl": "https://www.theguardian.com/tv-and-radio/2021/apr/04/the-syndicate-review-pandemic-2020-collective-unravelling-a-scandal-pls-like-unforgotten",
                "apiUrl": "https://content.guardianapis.com/tv-and-radio/2021/apr/04/the-syndicate-review-pandemic-2020-collective-unravelling-a-scandal-pls-like-unforgotten",
                "isHosted": false,
                "pillarId": "pillar/arts",
                "pillarName": "Arts",
                "slug": "test"
            },
            {
                "id": "lifeandstyle/2021/apr/04/seamas-oreilly-the-pros-and-cons-of-a-trip-to-the-playground-with-a-young-son",
                "type": "article",
                "sectionId": "lifeandstyle",
                "sectionName": "Life and style",
                "webPublicationDate": "2021-04-04T08:30:03Z",
                "webTitle": "The pros and cons of a trip to the playground | Séamas O’Reilly",
                "webUrl": "https://www.theguardian.com/lifeandstyle/2021/apr/04/seamas-oreilly-the-pros-and-cons-of-a-trip-to-the-playground-with-a-young-son",
                "apiUrl": "https://content.guardianapis.com/lifeandstyle/2021/apr/04/seamas-oreilly-the-pros-and-cons-of-a-trip-to-the-playground-with-a-young-son",
                "isHosted": false,
                "pillarId": "pillar/lifestyle",
                "pillarName": "Lifestyle",
                "slug": "test"
            } 
        ]
    }
}
